[
  {
  "revisionID": 2,
  "revisionCounter": 0,
  "notes": "test",
  "marker_color": "",
  "frames": [

  ],
  "assets": [
    {
      "serverIDs": [
        "333406a7-61ed-4705-916a-3399f22176ff"
      ],
      "servers": [],
      "children": [
        {
          "serverIDs": [
            "333406a7-61ed-4705-916a-3399f22176ff"
          ],
          "servers": [
            {
              "hostname": "127.0.0.1",
              "id": "333406a7-61ed-4705-916a-3399f22176ff",
              "port": 1234,
              "region": "default",
              "running": true,
              "startDate": "2018-04-27T15:54:14.000Z"
            },
            {
              "hostname": "127.0.0.1",
              "id": "333406a7-61ed-4705-916a-3399f22176ff",
              "port": 1234,
              "region": "default",
              "running": true,
              "startDate": "2018-04-27T15:54:14.000Z"
            },
            {
              "hostname": "127.0.0.1",
              "id": "333406a7-61ed-4705-916a-3399f22176ff",
              "port": 1234,
              "region": "default",
              "running": true,
              "startDate": "2018-04-27T15:54:14.000Z"
            }
          ],
          "children": [],
          "id": 33,
          "contentLength": 1029967,
          "contentType": "image/png",
          "createdDate": "2018-05-01T09:01:10.000Z",
          "name": "2f79fee1-eb6c-437f-9792-df2c90f5b631.png",
          "status": 1,
          "ref": "thumbnail"
        }
      ],
      "id": 18,
      "contentLength": 102098,
      "contentType": "image/jpeg",
      "createdDate": "2018-05-01T09:01:07.000Z",
      "name": "htr_Hanging_bug_SBP_02_1_0041_0023.jpg",
      "status": 1,
      "ref": "artwork"
    }
  ],
  "media": [

  ],
  "owner": null,
  "openInEditor": false,
  "durationFrames": 133,
  "in": 0,
  "out": 0,
  "hydrated": false,
  "selected": false,
  "effects": [

  ],
  "id": 9,
  "revisionDate": "2018-05-01T10:01:06.000Z",
  "createdDate": "2018-05-01T10:01:06.000Z",
  "published": true
},
{
  "revisionID": 3,
  "revisionCounter": 0,
  "notes": "test 2 panel",
  "marker_color": "",
  "frames": [

  ],
  "assets": [
    {
      "serverIDs": [
        "333406a7-61ed-4705-916a-3399f22176ff"
      ],
      "servers": [],
      "children": [
        {
          "serverIDs": [
            "333406a7-61ed-4705-916a-3399f22176ff"
          ],
          "servers": [
            {
              "hostname": "127.0.0.1",
              "id": "333406a7-61ed-4705-916a-3399f22176ff",
              "port": 1234,
              "region": "default",
              "running": true,
              "startDate": "2018-04-27T15:54:14.000Z"
            },
            {
              "hostname": "127.0.0.1",
              "id": "333406a7-61ed-4705-916a-3399f22176ff",
              "port": 1234,
              "region": "default",
              "running": true,
              "startDate": "2018-04-27T15:54:14.000Z"
            },
            {
              "hostname": "127.0.0.1",
              "id": "333406a7-61ed-4705-916a-3399f22176ff",
              "port": 1234,
              "region": "default",
              "running": true,
              "startDate": "2018-04-27T15:54:14.000Z"
            }
          ],
          "children": [],
          "id": 33,
          "contentLength": 1029967,
          "contentType": "image/png",
          "createdDate": "2018-05-01T09:01:10.000Z",
          "name": "2f79fee1-eb6c-437f-9792-df2c90f5b631.png",
          "status": 1,
          "ref": "thumbnail"
        }
      ],
      "id": 18,
      "contentLength": 102098,
      "contentType": "image/jpeg",
      "createdDate": "2018-05-01T09:01:07.000Z",
      "name": "htr_Hanging_bug_SBP_02_1_0041_0023.jpg",
      "status": 1,
      "ref": "artwork"
    }
  ],
  "media": [

  ],
  "owner": null,
  "openInEditor": false,
  "durationFrames": 123,
  "in": 0,
  "out": 0,
  "hydrated": false,
  "selected": false,
  "effects": [

  ],
  "id": 10,
  "revisionDate": "2018-05-01T10:01:06.000Z",
  "createdDate": "2018-05-01T10:01:06.000Z",
  "published": false
}
]
