{
  "show": {
    "sequences": [],
    "episodic": false,
    "thumbnailAsset": null,
    "id": 3,
    "created_date": "2018-05-11T14:17:26Z",
    "frameRate": 24,
    "aspectRatio": 2,
    "trackingCode": "2020"
  },
  "episode": null,
  "sequence": {
    "numRevisions": 4,
    "revisions": [],
    "hidden": false,
    "description": "the best",
    "createdDate": "2018-05-11T14:17:39.000Z",
    "id": 3,
    "owner": {
      "id": 1,
      "email": "",
      "createdDate": null
    },
    "act": null,
    "tracking": "1010",
    "comment": ""
  },
  "sequenceRevision": {
    "id": 0,
    "panels": [],
    "comment": ""
  },
  "assets": {}
}
